{ 
    "_id" : ObjectId("5a0f4bb22bf2a0f2bf81ad7f"), 
    "name" : "Test", 
    "description" : "testing"
}
{ 
    "_id" : ObjectId("5a121db12bf2a05235e10673"), 
    "name" : "Gaming", 
    "description" : "Gaming"
}
{ 
    "_id" : ObjectId("5a121e4c2bf2a05235e10679"), 
    "name" : "Videos in Russian", 
    "description" : "Random videos in the laguage"
}
